%YAML 1.1
%TAG !u! tag:unity3d.com,2011:
--- !u!1001 &285677196413020427
PrefabInstance:
  m_ObjectHideFlags: 0
  serializedVersion: 2
  m_Modification:
    serializedVersion: 2
    m_TransformParent: {fileID: 0}
    m_Modifications:
    - target: {fileID: 5627041033561602104, guid: 1956d1d81d511544f80d7b43c91f8339,
        type: 3}
      propertyPath: m_Name
      value: UnitRagdollEnemy
      objectReference: {fileID: 0}
    - target: {fileID: 5627041033561602107, guid: 1956d1d81d511544f80d7b43c91f8339,
        type: 3}
      propertyPath: m_RootOrder
      value: 0
      objectReference: {fileID: 0}
    - target: {fileID: 5627041033561602107, guid: 1956d1d81d511544f80d7b43c91f8339,
        type: 3}
      propertyPath: m_LocalPosition.x
      value: 0
      objectReference: {fileID: 0}
    - target: {fileID: 5627041033561602107, guid: 1956d1d81d511544f80d7b43c91f8339,
        type: 3}
      propertyPath: m_LocalPosition.y
      value: 0
      objectReference: {fileID: 0}
    - target: {fileID: 5627041033561602107, guid: 1956d1d81d511544f80d7b43c91f8339,
        type: 3}
      propertyPath: m_LocalPosition.z
      value: 0
      objectReference: {fileID: 0}
    - target: {fileID: 5627041033561602107, guid: 1956d1d81d511544f80d7b43c91f8339,
        type: 3}
      propertyPath: m_LocalRotation.w
      value: 1
      objectReference: {fileID: 0}
    - target: {fileID: 5627041033561602107, guid: 1956d1d81d511544f80d7b43c91f8339,
        type: 3}
      propertyPath: m_LocalRotation.x
      value: 0
      objectReference: {fileID: 0}
    - target: {fileID: 5627041033561602107, guid: 1956d1d81d511544f80d7b43c91f8339,
        type: 3}
      propertyPath: m_LocalRotation.y
      value: 0
      objectReference: {fileID: 0}
    - target: {fileID: 5627041033561602107, guid: 1956d1d81d511544f80d7b43c91f8339,
        type: 3}
      propertyPath: m_LocalRotation.z
      value: 0
      objectReference: {fileID: 0}
    - target: {fileID: 5627041033561602107, guid: 1956d1d81d511544f80d7b43c91f8339,
        type: 3}
      propertyPath: m_LocalEulerAnglesHint.x
      value: 0
      objectReference: {fileID: 0}
    - target: {fileID: 5627041033561602107, guid: 1956d1d81d511544f80d7b43c91f8339,
        type: 3}
      propertyPath: m_LocalEulerAnglesHint.y
      value: 0
      objectReference: {fileID: 0}
    - target: {fileID: 5627041033561602107, guid: 1956d1d81d511544f80d7b43c91f8339,
        type: 3}
      propertyPath: m_LocalEulerAnglesHint.z
      value: 0
      objectReference: {fileID: 0}
    - target: {fileID: 5764058267391382303, guid: 1956d1d81d511544f80d7b43c91f8339,
        type: 3}
      propertyPath: m_Materials.Array.data[0]
      value: 
      objectReference: {fileID: 2100000, guid: 7d22fc6b9a431b043a917fb89a80bcfc, type: 2}
    m_RemovedComponents: []
    m_AddedGameObjects: []
  m_SourcePrefab: {fileID: 100100000, guid: 1956d1d81d511544f80d7b43c91f8339, type: 3}
